R Interface to the PredictIt API • predictit
…
Demo Shiny Application

To start off, try running a demo Shiny application included with the package by running:

library(predictit)
runExample('demo')

All Markets

Try predictit::all_markets() to return a tibble containing bid and ask data for all PredictIt markets:

library(predictit)
all_markets()

# A tibble: 1,096 x 20
      id name  shortName image url   timeStamp           status contract_id dateEnd contract_image contract_name contract_shortN… contract_status lastTradePrice bestBuyYesCost
   <int> <chr> <chr>     <chr> <chr> <dttm>              <chr>        <int> <chr>   <chr>          <chr>         <chr>            <chr>                    <dbl>          <dbl>
 1  2721 Whic… Which pa… http… http… 2019-12-23 14:53:45 Open          4390 N/A     https://az620… Democratic    Democratic       Open                      0.52           0.53
 2  2721 Whic… Which pa… http… http… 2019-12-23 14:53:45 Open          4389 N/A     https://az620… Republican    Republican       Open                      0.49           0.49
 3  2721 Whic… Which pa… http… http… 2019-12-23 14:53:45 Open          4388 N/A     https://az620… Libertarian   Libertarian      Open                      0.02           0.03
 4  2721 Whic… Which pa… http… http… 2019-12-23 14:53:45 Open          4391 N/A     https://az620… Green         Green            Open                      0.02           0.03
 5  2747 Will… Will Cub… http… http… 2019-12-23 14:53:45 Open          4495 2020-1… https://az620… Will Mark Cu… Will Cuban run … Open                      0.05           0.07
 6  2875 Will… Will Cuo… http… http… 2019-12-23 14:53:45 Open          5121 2020-1… https://az620… Will Andrew … Will Cuomo run … Open                      0.06           0.09
 7  2901 Will… Woman pr… http… http… 2019-12-23 14:53:45 Open          5215 N/A     https://az620… Will a woman… Woman president… Open                      0.12           0.12
 8  2902 Will… Will the… http… http… 2019-12-23 14:53:45 Open          5216 N/A     https://az620… Will the 202… Will the 2020 D… Open                      0.22           0.23
 9  2903 Will… Will the… http… http… 2019-12-23 14:53:45 Open          5217 N/A     https://az620… Will the 202… Will the 2020 G… Open                      0.04           0.05
10  2992 Will… Will Zuc… http… http… 2019-12-23 14:53:45 Open          5534 2020-1… https://az620… Will Faceboo… Will Zuckerberg… Open                      0.03           0.04
# … with 1,086 more rows, and 5 more variables: bestBuyNoCost <dbl>, bestSellYesCost <dbl>, bestSellNoCost <dbl>, lastClosePrice <dbl>, displayOrder <int>
…
