Format bid and ask market data with HTML — format_market_data • predictit
…
    Wrapper function to apply HTML formatting to Predictit market data. Can be displayed in a shiny app, or standalone in an htmlwidget (e.g. DT::datatable).

format_market_data(data)

    Arguments

      data
      Predictit market data, of class data.frame or tbl, as returned by pRedictit::get_predictit_market_data().

    Examples

data <- get_predictit_markets()
format_market_data(data)
#> # A tibble: 1,096 x 13
#>    market contract    id timeStamp           status contract_id dateEnd
#>    <chr>  <chr>    <int> <dttm>              <chr>        <int> <chr>  
#>  1 "<img… <img sr…  2721 2019-12-22 16:22:27 Open          4390 N/A    
#>  2 "<img… <img sr…  2721 2019-12-22 16:22:27 Open          4389 N/A    
#>  3 "<img… <img sr…  2721 2019-12-22 16:22:27 Open          4388 N/A    
#>  4 "<img… <img sr…  2721 2019-12-22 16:22:27 Open          4391 N/A    
#>  5 "<img… <img sr…  2747 2019-12-22 16:22:27 Open          4495 2020-1…
#>  6 "<img… <img sr…  2875 2019-12-22 16:22:27 Open          5121 2020-1…
#>  7 "<img… <img sr…  2901 2019-12-22 16:22:27 Open          5215 N/A    
#>  8 "<img… <img sr…  2902 2019-12-22 16:22:27 Open          5216 N/A    
#>  9 "<img… <img sr…  2903 2019-12-22 16:22:27 Open          5217 N/A    
#> 10 "<img… <img sr…  2992 2019-12-22 16:22:27 Open          5534 2020-1…
#> # … with 1,086 more rows, and 6 more variables: lastTradePrice <dbl>,
#> #   bestBuyYesCost <dbl>, bestBuyNoCost <dbl>, bestSellYesCost <dbl>,
#> #   bestSellNoCost <dbl>, lastClosePrice <dbl>
…
